%YAML 1.1
%TAG !u! tag:unity3d.com,2011:
--- !u!1001 &5362029484459962071
PrefabInstance:
  m_ObjectHideFlags: 0
  serializedVersion: 2
  m_Modification:
    serializedVersion: 3
    m_TransformParent: {fileID: 0}
    m_Modifications:
    - target: {fileID: 6428287947708339009, guid: d8f7de39f006b1d448154cdf3501b731,
        type: 3}
      propertyPath: m_Name
      value: floor_decoration_C Variant
      objectReference: {fileID: 0}
    - target: {fileID: 8029500375314882898, guid: d8f7de39f006b1d448154cdf3501b731,
        type: 3}
      propertyPath: m_RootOrder
      value: 4
      objectReference: {fileID: 0}
    - target: {fileID: 8029500375314882898, guid: d8f7de39f006b1d448154cdf3501b731,
        type: 3}
      propertyPath: m_LocalPosition.x
      value: -23
      objectReference: {fileID: 0}
    - target: {fileID: 8029500375314882898, guid: d8f7de39f006b1d448154cdf3501b731,
        type: 3}
      propertyPath: m_LocalPosition.y
      value: 0
      objectReference: {fileID: 0}
    - target: {fileID: 8029500375314882898, guid: d8f7de39f006b1d448154cdf3501b731,
        type: 3}
      propertyPath: m_LocalPosition.z
      value: 26.44
      objectReference: {fileID: 0}
    - target: {fileID: 8029500375314882898, guid: d8f7de39f006b1d448154cdf3501b731,
        type: 3}
      propertyPath: m_LocalRotation.w
      value: 1
      objectReference: {fileID: 0}
    - target: {fileID: 8029500375314882898, guid: d8f7de39f006b1d448154cdf3501b731,
        type: 3}
      propertyPath: m_LocalRotation.x
      value: 0.000000021855694
      objectReference: {fileID: 0}
    - target: {fileID: 8029500375314882898, guid: d8f7de39f006b1d448154cdf3501b731,
        type: 3}
      propertyPath: m_LocalRotation.y
      value: -0
      objectReference: {fileID: 0}
    - target: {fileID: 8029500375314882898, guid: d8f7de39f006b1d448154cdf3501b731,
        type: 3}
      propertyPath: m_LocalRotation.z
      value: -0
      objectReference: {fileID: 0}
    - target: {fileID: 8029500375314882898, guid: d8f7de39f006b1d448154cdf3501b731,
        type: 3}
      propertyPath: m_LocalEulerAnglesHint.x
      value: 0
      objectReference: {fileID: 0}
    - target: {fileID: 8029500375314882898, guid: d8f7de39f006b1d448154cdf3501b731,
        type: 3}
      propertyPath: m_LocalEulerAnglesHint.y
      value: 0
      objectReference: {fileID: 0}
    - target: {fileID: 8029500375314882898, guid: d8f7de39f006b1d448154cdf3501b731,
        type: 3}
      propertyPath: m_LocalEulerAnglesHint.z
      value: 0
      objectReference: {fileID: 0}
    m_RemovedComponents: []
    m_RemovedGameObjects: []
    m_AddedGameObjects: []
    m_AddedComponents: []
  m_SourcePrefab: {fileID: 100100000, guid: d8f7de39f006b1d448154cdf3501b731, type: 3}
