%YAML 1.1
%TAG !u! tag:unity3d.com,2011:
--- !u!1001 &4069082120813017120
PrefabInstance:
  m_ObjectHideFlags: 0
  serializedVersion: 2
  m_Modification:
    serializedVersion: 3
    m_TransformParent: {fileID: 0}
    m_Modifications:
    - target: {fileID: 5217982637605399639, guid: 0164f1039e56a3f48af1b7b06f90b7d9,
        type: 3}
      propertyPath: m_Name
      value: obj_coffin_A Variant
      objectReference: {fileID: 0}
    - target: {fileID: 9093513429963431492, guid: 0164f1039e56a3f48af1b7b06f90b7d9,
        type: 3}
      propertyPath: m_RootOrder
      value: 47
      objectReference: {fileID: 0}
    - target: {fileID: 9093513429963431492, guid: 0164f1039e56a3f48af1b7b06f90b7d9,
        type: 3}
      propertyPath: m_LocalPosition.x
      value: 45
      objectReference: {fileID: 0}
    - target: {fileID: 9093513429963431492, guid: 0164f1039e56a3f48af1b7b06f90b7d9,
        type: 3}
      propertyPath: m_LocalPosition.y
      value: 0
      objectReference: {fileID: 0}
    - target: {fileID: 9093513429963431492, guid: 0164f1039e56a3f48af1b7b06f90b7d9,
        type: 3}
      propertyPath: m_LocalPosition.z
      value: 54.5
      objectReference: {fileID: 0}
    - target: {fileID: 9093513429963431492, guid: 0164f1039e56a3f48af1b7b06f90b7d9,
        type: 3}
      propertyPath: m_LocalRotation.w
      value: 1
      objectReference: {fileID: 0}
    - target: {fileID: 9093513429963431492, guid: 0164f1039e56a3f48af1b7b06f90b7d9,
        type: 3}
      propertyPath: m_LocalRotation.x
      value: 0.000000021855694
      objectReference: {fileID: 0}
    - target: {fileID: 9093513429963431492, guid: 0164f1039e56a3f48af1b7b06f90b7d9,
        type: 3}
      propertyPath: m_LocalRotation.y
      value: -0
      objectReference: {fileID: 0}
    - target: {fileID: 9093513429963431492, guid: 0164f1039e56a3f48af1b7b06f90b7d9,
        type: 3}
      propertyPath: m_LocalRotation.z
      value: -0
      objectReference: {fileID: 0}
    - target: {fileID: 9093513429963431492, guid: 0164f1039e56a3f48af1b7b06f90b7d9,
        type: 3}
      propertyPath: m_LocalEulerAnglesHint.x
      value: 0
      objectReference: {fileID: 0}
    - target: {fileID: 9093513429963431492, guid: 0164f1039e56a3f48af1b7b06f90b7d9,
        type: 3}
      propertyPath: m_LocalEulerAnglesHint.y
      value: 0
      objectReference: {fileID: 0}
    - target: {fileID: 9093513429963431492, guid: 0164f1039e56a3f48af1b7b06f90b7d9,
        type: 3}
      propertyPath: m_LocalEulerAnglesHint.z
      value: 0
      objectReference: {fileID: 0}
    m_RemovedComponents: []
    m_RemovedGameObjects: []
    m_AddedGameObjects: []
    m_AddedComponents: []
  m_SourcePrefab: {fileID: 100100000, guid: 0164f1039e56a3f48af1b7b06f90b7d9, type: 3}
